2024-07-02 15:02:32 INFO logger.py:126 Log level: INFO
2024-07-02 15:02:32 INFO main.py:265 GNS3 GUI version 2.2.47
2024-07-02 15:02:32 INFO main.py:266 Copyright (c) 2007-2024 GNS3 Technologies Inc.
2024-07-02 15:02:32 INFO main.py:267 Application started with /opt/gns3-gui/gns3/__main__.py
